﻿{
  "$schema": "http://json.schemastore.org/launchsettings.json",
  "iisSettings": {
    "windowsAuthentication": false,
    "anonymousAuthentication": true,
    "iisExpress": {
      "applicationUrl": "http://localhost:53936",
      "sslPort": 0
    }
  },
  "profiles": {
    "IIS Express": {
      "commandName": "IISExpress",
      "launchBrowser": true,
      "launchUrl": "helloworld",
      "environmentVariables": {
        "ASPNETCORE_ENVIRONMENT": "Development"
      }
    },
    "TestApp": {
        "commandName": "Project",
        "launchBrowser": true,
        "launchUrl": "helloworld",
        "applicationUrl": "http://localhost:5000",
        "environmentVariables": {
            "ASPNETCORE_ENVIRONMENT": "Development"
        }
    }
  }
}
